…
``` r
chemoresistance_ratio <- function(df){
  out <- data.frame(Patient = df$Patient,)
}
as_tibble(t(assay(chemo_es))) %>% mutate(Patient = colData(chemo_es)$Patient, Chemoresistance_ratio = abs(Chemoresistance)/abs(Chemosensitive))
```

    ## # A tibble: 24 × 4
    ##    Chemoresistance Chemosensitive Patient Chemoresistance_ratio
    ##              <dbl>          <dbl>   <int>                 <dbl>
    ##  1           0.251         -0.288       1                 0.871
    ##  2           0.184         -0.262       1                 0.701
    ##  3          -0.228         -0.314       2                 0.726
    ##  4          -0.292         -0.480       2                 0.608
    ##  5          -0.155          0.398       3                 0.389
    ##  6           0.292          0.529       3                 0.552
    ##  7          -0.331         -0.632       4                 0.523
    ##  8          -0.332         -0.318       4                 1.05 
    ##  9           0.149          0.472       5                 0.315
    ## 10          -0.256          0.395       5                 0.647
    ## # … with 14 more rows
    ## # ℹ Use `print(n = ...)` to see more rows
…
